Exploring article metadata: TC and TCQ
…
Arrange in descending order by tf-idf (highest tf-idf words)

Code
ta_tf_idf %>%
  select(-total) %>%
  arrange(desc(tf_idf))

# A tibble: 11,261 × 6
   source_title                      word            n       tf   idf   tf_idf
   <chr>                             <chr>       <int>    <dbl> <dbl>    <dbl>
 1 TECHNICAL COMMUNICATION QUARTERLY essay          21 0.000525 0.693 0.000364
 2 TECHNICAL COMMUNICATION           xr             27 0.000505 0.693 0.000350
 3 TECHNICAL COMMUNICATION QUARTERLY comics         20 0.000500 0.693 0.000347
 4 TECHNICAL COMMUNICATION QUARTERLY discursive     17 0.000425 0.693 0.000295
 5 TECHNICAL COMMUNICATION QUARTERLY rhetorics      15 0.000375 0.693 0.000260
 6 TECHNICAL COMMUNICATION QUARTERLY guest          14 0.000350 0.693 0.000243
 7 TECHNICAL COMMUNICATION           slides         18 0.000337 0.693 0.000233
 8 TECHNICAL COMMUNICATION QUARTERLY composition    12 0.000300 0.693 0.000208
 9 TECHNICAL COMMUNICATION QUARTERLY queer          12 0.000300 0.693 0.000208
10 TECHNICAL COMMUNICATION           apps           16 0.000299 0.693 0.000207
# ℹ 11,251 more rows
…
